final
…
# 计算每个州的人均收入
ave_agi <- agidf %>%
  group_by(STATE) %>%
  summarise(
    total_population = sum(N2, na.rm = TRUE),  # 计算每个州的总人口
    total_income = sum(A00100, na.rm = TRUE),      # 计算每个州的总收入
    total_tax = sum(A18300, na.rm = TRUE) 
  ) %>%
  mutate(per_capita_tax = total_tax/total_income) 

# 查看结果
print(ave_agi)

# A tibble: 51 × 5
   STATE total_population total_income total_tax per_capita_tax
   <chr>            <dbl>        <dbl>     <dbl>          <dbl>
 1 AK             1290970     52947054    243604        0.00460
 2 AL             8248810    276585660   1949806        0.00705
 3 AR             5044920    167904402   1020058        0.00608
 4 AZ            12465060    488399454   4090530        0.00838
 5 CA            70327820   3621250506  51249102        0.0142 
 6 CO            10269910    508917114   5397120        0.0106 
 7 CT             6368170    382659348   4110310        0.0107 
 8 DC             1050600     78838848   1195818        0.0152 
 9 DE             1787140     73797590    739878        0.0100 
10 FL            38268970   1775522262  11291742        0.00636
# ℹ 41 more rows
…
# 计算各个州的该工种的人均保险数额
result <- filtered_df %>%
  group_by(Rndrng_Prvdr_Geo_Desc) %>%
  summarise(
    avg_mdcr_stdzd_amt = mean(Avg_Mdcr_Stdzd_Amt, na.rm = TRUE)
  )

filtered_df <- result %>%
  rename(STATE = Rndrng_Prvdr_Geo_Desc)

print(filtered_df)

# A tibble: 51 × 2
   STATE avg_mdcr_stdzd_amt
   <chr>              <dbl>
 1 AK                  75.3
 2 AL                  69.2
 3 AR                  87.6
 4 AZ                  71.5
 5 CA                  88.8
 6 CO                  67.2
 7 CT                  62.5
 8 DE                  49.5
 9 FL                  66.3
10 GA                  52.2
# ℹ 41 more rows

MERGE

df <- left_join(ave_agi, filtered_df, by = "STATE")
merged_df  <- df[df$per_capita_tax <=0.017 & df$per_capita_tax >=0.006 ,]
#merged_df  <- df

# 查看合并后的数据框
print(merged_df)

# A tibble: 43 × 6
   STATE total_population total_income total_tax per_capita_tax
   <chr>            <dbl>        <dbl>     <dbl>          <dbl>
 1 AL             8248810    276585660   1949806        0.00705
 2 AR             5044920    167904402   1020058        0.00608
 3 AZ            12465060    488399454   4090530        0.00838
 4 CA            70327820   3621250506  51249102        0.0142 
 5 CO            10269910    508917114   5397120        0.0106 
 6 CT             6368170    382659348   4110310        0.0107 
 7 DC             1050600     78838848   1195818        0.0152 
 8 DE             1787140     73797590    739878        0.0100 
 9 FL            38268970   1775522262  11291742        0.00636
10 GA            18570220    694029670   8432010        0.0121 
# ℹ 33 more rows
# ℹ 1 more variable: avg_mdcr_stdzd_amt <dbl>
…
